memory_initialization_radix = 16;
memory_initialization_vector=
48,
65,
6C,
6C,
6F,
20,
74,
68,
69,
73,
20,
69,
73,
20,
67,
6C,
69,
74,
63,
68,
20,
74,
6F,
6F,
6C,
20,
6D,
61,
64,
65,
20,
62,
79,
20,
6D,
65,
20,
66,
6F,
72,
20,
6D,
79,
73,
65,
6C,
66,
2E,
0D,
0A,
54,
6F,
20,
75,
73,
65,
20,
69,
74,
20,
6A,
75,
73,
74,
20,
73,
65,
6E,
64,
20,
74,
77,
6F,
20,
33,
32,
20,
62,
69,
74,
20,
62,
69,
67,
20,
65,
6E,
64,
69,
61,
6E,
20,
6E,
75,
6D,
62,
65,
72,
73,
20,
76,
69,
61,
20,
75,
61,
72,
74,
0D,
0A,
66,
69,
72,
73,
74,
20,
61,
74,
74,
61,
63,
6B,
20,
64,
65,
6C,
61,
79,
20,
74,
68,
65,
6E,
20,
64,
75,
72,
61,
74,
69,
6F,
6E,
20,
61,
6E,
64,
20,
61,
20,
64,
75,
6D,
6D,
79,
20,
62,
79,
74,
65,
20,
74,
6F,
20,
63,
6F,
6E,
66,
69,
72,
6D,
0D,
0A,
61,
66,
74,
65,
72,
20,
61,
74,
74,
61,
63,
6B,
20,
68,
61,
73,
20,
66,
69,
6E,
69,
73,
68,
65,
64,
20,
73,
65,
6E,
64,
20,
6C,
69,
6E,
65,
20,
66,
65,
65,
64,
28,
30,
78,
61,
29,
20,
74,
6F,
20,
72,
65,
73,
65,
74,
20,
74,
61,
72,
67,
65,
74,
0D,
0A,
41,
6C,
6C,
20,
63,
6F,
70,
79,
72,
69,
67,
68,
74,
20,
6F,
77,
6E,
65,
64,
20,
62,
79,
20,
4E,
61,
75,
72,
69,
73,
20,
42,
72,
75,
6E,
69,
6E,
73,
20,
65,
78,
63,
65,
70,
74,
20,
74,
68,
6F,
73,
65,
20,
70,
61,
72,
74,
73,
20,
74,
68,
61,
74,
0D,
0A,
61,
72,
65,
20,
6F,
77,
6E,
65,
64,
20,
62,
79,
20,
58,
69,
6C,
69,
6E,
78,
20,
73,
69,
6E,
63,
65,
20,
74,
68,
65,
69,
72,
20,
49,
50,
73,
20,
61,
72,
65,
20,
75,
73,
65,
64,
20,
69,
6E,
20,
74,
68,
69,
73,
20,
70,
72,
6F,
6A,
65,
63,
74,
2E,
0D,
0A,
00,
00,
00,
00,
00,
00,
00,
00,
00,
00,
00,
00,
00,
00,
00,
00,
00,
00,
00,
00,
00,
00,
00,
00,
00,
00,
00,
00,
00,
00,
00,
00,
00,
00,
00,
00,
00,
00,
00,
00,
00,
00,
00,
00,
00,
00,
00,
00,
00,
00,
00,
00,
00,
00,
00,
00,
00,
00,
00,
00,
00,
00,
00,
00,
00,
00,
00,
00,
00,
00,
00,
00,
00,
00,
00,
00,
00,
00,
00,
00,
00,
00,
00,
00,
00,
00,
00,
00,
00,
00,
00,
00,
00,
00,
00,
00,
00,
00,
00,
00,
00,
00,
00,
00,
00,
00,
00,
00,
00,
00,
00,
00,
00,
00,
00,
00,
00,
00,
00,
00,
00,
00,
00,
00,
00,
00,
00,
00,
00,
00,
00,
00,
00,
00,
00,
00,
00,
00,
00,
00,
00,
00,
00,
00,
00,
00,
00,
00,
00,
00,
00,
00,
00,
00,
00,
00,
00,
00,
00,
00,
00,
00,
00,
00,
00,
00,
00,
00,
00,
00,
00,
00,
00,
00,
00,
00,
00,
00,
00,
00,
00,
00,
00,
00,
00,
00,
00,
00,
00,
00,
00,
00,
00,
00,
00,
00,
00,
00,
00,
00,
00,
00,
00,
00,
00,
00,
00,
00,
00,
00,
00,
00,
00,
00,
00,
00,
00,
00,
00,
00,
00,
00,
00,
00,
00,
00,
00,
00,
00,
00,
00,
00,
00,
00,
00,
00,
00,
00,
00,
00,
00,
00,
00,
00,
00,
00,
00,
00,
00,
00,
00,
00,
00,
00,
00,
00,
00,
00,
00,
00,
00,
00,
00,
00,
00,
00,
00,
00,
00,
00,
00,
00,
00,
00,
00,
00,
00,
00,
00,
00,
00,
00,
00,
00,
00,
00,
00,
00,
00,
00,
00,
00,
00,
00,
00,
00,
00,
00,
00,
00,
00,
00,
00,
00,
00,
00,
00,
00,
00,
00,
00,
00,
00,
00,
00,
00,
00,
00,
00,
00,
00,
00,
00,
00,
00,
00,
00,
00,
00,
00,
00,
00,
00,
00,
00,
00,
00,
00,
00,
00,
00,
00,
00,
00,
00,
00,
00,
00,
00,
00,
00,
00,
00,
00,
00,
00,
00,
00,
00,
00,
00,
00,
00,
00,
00,
00,
00,
00,
00,
00,
00,
00,
00,
00,
00,
00,
00,
00,
00,
00,
00,
00,
00,
00,
00,
00,
00,
00,
00,
00,
00,
00,
00,
00,
00,
00,
00,
00,
00,
00,
00,
00,
00,
00,
00,
00,
00,
00,
00,
00,
00,
00,
00,
00,
00,
00,
00,
00,
00,
00,
00,
00,
00,
00,
00,
00,
00,
00,
00,
00,
00,
00,
00,
00,
00,
00,
00,
00,
00,
00,
00,
00,
00,
00,
00,
00,
00,
00,
00,
00,
00,
00,
00,
00,
00,
00,
00,
00,
00,
00,
00,
00,
00,
00,
00,
00,
00,
00,
00,
00,
00,
00,
00,
00,
00,
00,
00,
00,
00,
00,
00,
00,
00,
00,
00,
00,
00,
00,
00,
00,
00,
00,
00,
00,
00,
00,
00,
00,
00,
00,
00,
00,
00,
00,
00,
00,
00,
00,
00,
00,
00,
00,
00,
00,
00,
00,
00,
00,
00,
00,
00,
00,
00,
00,
00,
00,
00,
00,
00,
00,
00,
00,
00,
00,
00,
00,
00,
00,
00,
00,
00,
00,
00,
00,
00,
00,
00,
00,
00,
00,
00,
00,
00,
00,
00,
00,
00,
00,
00,
00,
00,
00,
00,
00,
00,
00,
00,
00,
00,
00,
00,
00,
00,
00,
00,
00,
00,
00,
00,
00,
00,
00,
00,
00,
00,
00,
00,
00,
00,
00,
00,
00,
00,
00,
00,
00,
00,
00,
00,
00,
00,
00,
00,
00,
00,
00,
00,
00,
00,
00,
00,
00,
00,
00,
00,
00,
00,
00,
00,
00,
00,
00,
00,
00,
00,
00,
00,
00,
00,
00,
00,
00,
00,
00,
00,
00,
00,
00,
00,
00,
00,
00,
00,
00,
00,
00,
00,
00,
00,
00,
00,
00,
00,
00,
00,
00,
00,
00,
00,
00,
00,
00,
00,
42,
6F,
61,
72,
64,
20,
73,
68,
6F,
75,
6C,
64,
20,
62,
65,
20,
69,
6E,
20,
72,
65,
73,
65,
74,
20,
73,
74,
61,
74,
65,
20,
70,
6C,
65,
61,
73,
65,
20,
70,
72,
6F,
76,
69,
64,
65,
20,
64,
65,
6C,
61,
79,
20,
61,
6E,
64,
20,
64,
75,
72,
61,
74,
69,
6F,
6E,
0D,
0A,
61,
73,
20,
74,
77,
6F,
20,
33,
32,
20,
62,
69,
74,
20,
62,
69,
67,
20,
65,
6E,
64,
69,
61,
6E,
20,
6E,
75,
6D,
62,
65,
72,
73,
20,
61,
6E,
64,
20,
61,
20,
64,
75,
6D,
6D,
79,
20,
62,
79,
74,
65,
20,
74,
6F,
20,
63,
6F,
6E,
66,
69,
72,
6D,
0D,
0A,
00,
00,
00,
00,
00,
00,
00,
00,
00,
00,
00,
00,
00,
00,
00,
00,
00,
00,
00,
00,
00,
00,
00,
00,
00,
00,
00,
00,
00,
00,
00,
00,
00,
00,
00,
00,
00,
00,
00,
00,
00,
00,
00,
00,
00,
00,
00,
00,
00,
00,
00,
00,
00,
00,
00,
00,
00,
00,
00,
00,
00,
00,
00,
00,
00,
00,
00,
00,
00,
00,
00,
00,
00,
00,
00,
00,
00,
00,
00,
00,
00,
00,
00,
00,
00,
00,
00,
00,
00,
00,
00,
00,
00,
00,
00,
00,
00,
00,
00,
00,
00,
00,
00,
00,
00,
00,
00,
00,
00,
00,
00,
00,
00,
00,
00,
00,
00,
00,
00,
00,
00,
00,
00,
00,
00,
00,
00,
00,
00,
00,
00,
00,
00,
00,
00,
00,
00,
00,
00,
00,
00,
00,
00,
00,
00,
00,
00,
00,
00,
00,
00,
00,
00,
00,
00,
00,
00,
00,
00,
00,
00,
00,
00,
00,
00,
00,
00,
00,
00,
00,
00,
00,
00,
00,
00,
00,
00,
00,
00,
00,
00,
00,
00,
00,
00,
00,
00,
00,
00,
00,
00,
00,
00,
00,
00,
00,
00,
00,
00,
00,
00,
00,
00,
00,
00,
00,
00,
00,
00,
00,
00,
00,
00,
00,
00,
00,
00,
00,
00,
00,
00,
00,
00,
00,
00,
00,
00,
00,
00,
00,
00,
00,
00,
00,
00,
00,
00,
00,
00,
00,
00,
00,
00,
00,
00,
00,
00,
00,
00,
00,
00,
00,
00,
00,
00,
00,
00,
00,
00,
00,
00,
00,
00,
00,
00,
00,
00,
00,
00,
00,
00,
00,
00,
00,
00,
00,
00,
00,
00,
00,
00,
00,
00,
00,
00,
00,
00,
00,
00,
00,
00,
00,
00,
00,
00,
00,
00,
00,
00,
00,
00,
00,
00,
00,
00,
00,
00,
00,
00,
00,
00,
00,
00,
00,
00,
00,
00,
00,
00,
00,
00,
00,
00,
00,
00,
00,
00,
00,
00,
00,
00,
00,
00,
00,
00,
00,
00,
00,
00,
00,
00,
00,
00,
00,
00,
00,
00,
00,
00,
00,
00,
00,
00,
00,
00,
00,
00,
00,
00,
00,
00,
00,
00,
00,
00,
00,
00,
00,
00,
00,
00,
00,
00,
00,
00,
00,
00,
00,
00,
00,
00,
00,
00,
00,
46,
61,
69,
6C,
65,
64,
20,
74,
6F,
20,
70,
65,
72,
66,
6F,
72,
6D,
20,
61,
6E,
20,
61,
74,
74,
61,
63,
6B,
2C,
20,
70,
6C,
65,
61,
73,
65,
20,
69,
6E,
76,
65,
73,
74,
69,
67,
61,
74,
65,
20,
74,
68,
65,
20,
63,
61,
75,
73,
65,
0D,
0A,
00,
00,
00,
00,
00,
00,
00,
00,
00,
00,
00,
00,
00,
00,
00,
00,
00,
00,
00,
00,
00,
00,
00,
00,
00,
00,
00,
00,
00,
00,
00,
00,
00,
00,
00,
00,
00,
00,
00,
00,
00,
00,
00,
00,
00,
00,
00,
00,
00,
00,
00,
00,
00,
00,
00,
00,
00,
00,
00,
00,
00,
00,
00,
00,
00,
00,
00,
00,
00,
00,
00,
00,
00,
00,
00,
00,
00,
00,
00,
00,
00,
00,
00,
00,
00,
00,
00,
00,
00,
00,
00,
00,
00,
00,
00,
00,
00,
00,
00,
00,
00,
00,
00,
00,
00,
00,
00,
00,
00,
00,
00,
00,
00,
00,
00,
00,
00,
00,
00,
00,
00,
00,
00,
00,
00,
00,
00,
00,
00,
00,
00,
00,
00,
00,
00,
00,
00,
00,
00,
00,
00,
00,
00,
00,
00,
00,
00,
00,
00,
00,
00,
00,
00,
00,
00,
00,
00,
00,
00,
00,
00,
00,
00,
00,
00,
00,
00,
00,
00,
00,
00,
00,
00,
00,
00,
00,
00,
00,
00,
00,
00,
00,
00,
00,
00,
00,
00,
00,
00,
00,
00,
00,
00,
00,
00,
00,
00,
00,
00,
00,
00,
00,
00,
00,
00,
00,
00,
00,
00,
00,
00,
00,
00,
00,
00,
00,
00,
00,
00,
00,
00,
00,
00,
00,
00,
00,
00,
00,
00,
00,
00,
00,
00,
00,
00,
00,
00,
00,
00,
00,
00,
00,
00,
00,
00,
00,
00,
00,
00,
00,
00,
00,
00,
00,
00,
00,
00,
00,
00,
00,
00,
00,
00,
00,
00,
00,
00,
00,
00,
00,
00,
00,
00,
00,
00,
00,
00,
00,
00,
00,
00,
00,
00,
00,
00,
00,
00,
00,
00,
00,
00,
00,
00,
00,
00,
00,
00,
00,
00,
00,
00,
00,
00,
00,
00,
00,
00,
00,
00,
00,
00,
00,
00,
00,
00,
00,
00,
00,
00,
00,
00,
00,
00,
00,
00,
00,
00,
00,
00,
00,
00,
00,
00,
00,
00,
00,
00,
00,
00,
00,
00,
00,
00,
00,
00,
00,
00,
00,
00,
00,
00,
00,
00,
00,
00,
00,
00,
00,
00,
00,
00,
00,
00,
00,
00,
00,
00,
00,
00,
00,
00,
00,
00,
00,
00,
00,
00,
00,
00,
00,
00,
00,
00,
00,
00,
00,
00,
00,
00,
00,
00,
00,
00,
00,
00,
00,
00,
00,
00,
00,
00,
00,
00,
00,
00,
00,
00,
00,
00,
00,
00,
00,
00,
00,
00,
00,
00,
00,
00,
00,
00,
00,
00,
00,
00,
00,
00,
00,
00,
00,
00,
00,
00,
00,
00,
00,
00,
00,
00,
00,
00,
00,
00,
00,
00,
00,
00,
00,
00,
00,
00,
00,
00,
44,
6F,
6E,
65,
20,
73,
65,
6E,
64,
20,
6C,
69,
6E,
65,
20,
66,
65,
65,
64,
28,
30,
78,
61,
29,
20,
74,
6F,
20,
72,
65,
73,
65,
74,
20,
74,
61,
72,
67,
65,
74,
0D,
0A,
00,
00,
00,
00,
00,
00,
00,
00,
00,
00,
00,
00,
00,
00,
00,
00,
00,
00,
00,
00,
00,
00,
00,
00,
00,
00,
00,
00,
00,
00,
00,
00,
00,
00,
00,
00,
00,
00,
00,
00,
00,
00,
00,
00,
00,
00,
00,
00,
00,
00,
00,
00,
00,
00,
00,
00,
00,
00,
00,
00,
00,
00,
00,
00,
00,
00,
00,
00,
00,
00,
00,
00,
00,
00,
00,
00,
00,
00,
00,
00,
00,
00,
00,
00,
00,
00,
00,
00,
00,
00,
00,
00,
00,
00,
00,
00,
00,
00,
00,
00,
00,
00,
00,
00,
00,
00,
00,
00,
00,
00,
00,
00,
00,
00,
00,
00,
00,
00,
00,
00,
00,
00,
00,
00,
00,
00,
00,
00,
00,
00,
00,
00,
00,
00,
00,
00,
00,
00,
00,
00,
00,
00,
00,
00,
00,
00,
00,
00,
00,
00,
00,
00,
00,
00,
00,
00,
00,
00,
00,
00,
00,
00,
00,
00,
00,
00,
00,
00,
00,
00,
00,
00,
00,
00,
00,
00,
00,
00,
00,
00,
00,
00,
00,
00,
00,
00,
00,
00,
00,
00,
00,
00,
00,
00,
00,
00,
00,
00,
00,
00,
00,
00,
00,
00,
00,
00,
00,
00,
00,
00,
00,
00,
00,
00,
00,
00,
00,
00,
00,
00,
00,
00,
00,
00,
00,
00,
00,
00,
00,
00,
00,
00,
00,
00,
00,
00,
00,
00,
00,
00,
00,
00,
00,
00,
00,
00,
00,
00,
00,
00,
00,
00,
00,
00,
00,
00,
00,
00,
00,
00,
00,
00,
00,
00,
00,
00,
00,
00,
00,
00,
00,
00,
00,
00,
00,
00,
00,
00,
00,
00,
00,
00,
00,
00,
00,
00,
00,
00,
00,
00,
00,
00,
00,
00,
00,
00,
00,
00,
00,
00,
00,
00,
00,
00,
00,
00,
00,
00,
00,
00,
00,
00,
00,
00,
00,
00,
00,
00,
00,
00,
00,
00,
00,
00,
00,
00,
00,
00,
00,
00,
00,
00,
00,
00,
00,
00,
00,
00,
00,
00,
00,
00,
00,
00,
00,
00,
00,
00,
00,
00,
00,
00,
00,
00,
00,
00,
00,
00,
00,
00,
00,
00,
00,
00,
00,
00,
00,
00,
00,
00,
00,
00,
00,
00,
00,
00,
00,
00,
00,
00,
00,
00,
00,
00,
00,
00,
00,
00,
00,
00,
00,
00,
00,
00,
00,
00,
00,
00,
00,
00,
00,
00,
00,
00,
00,
00,
00,
00,
00,
00,
00,
00,
00,
00,
00,
00,
00,
00,
00,
00,
00,
00,
00,
00,
00,
00,
00,
00,
00,
00,
00,
00,
00,
00,
00,
00,
00,
00,
00,
00,
00,
00,
00,
00,
00,
00,
00,
00,
00,
00,
00,
00,
00,
00,
00,
00,
00,
00,
00,
00,
00,
00,
00,
00,
00,
00,
00,
00,
00,
00,
00,
00,
00,
00,
00,
00,
00,
00,
00,
00,
00,
00,
00,
00,
00,
00,
00,
00,
00,
00,
00,
00,
00,
00,
00,
00,
00,
00,
00,
00,
00,
00,
00,
00,
00,
00,
00,
00,
00,
00,
00,
00,
00,
00,
00,
00,
00,
00,
00,
00,
00,
00,
00,
00,
00,
00,
00,
00,
00,
00,
00,
00,
00,
00,
00,
00,
00,
00,
00,
00,
00,
00,
00,
00,
00,
00,
00,
00,
00,
00,
00,
00,
00,
00,
00,
00,
00,
00,
00,
00,
00,
00,
00,
00,
00,
00,
00,
00,
00,
00,
00,
00,
00,
00,
00,
00,
00,
00,
00,
00,
00,
00,
00,
00,
00,
00,
00,
00,
00,
00,
00,
00,
00,
00,
00,
00,
00,
00,
00,
00,
00,
00,
00,
00,
00,
00,
00,
00,
00,
00,
00,
00,
00,
00,
00,
00,
00,
00,
00,
00,
00,
00,
00,
00,
00,
00,
00,
00,
00,
00,
00,
00,
00,
00,
00,
00,
00,
00,
00,
00,
00,
00,
00,
00,
00,
00,
00,
00,
00,
00,
00,
00,
00,
00,
00,
00,
00,
00,
00,
00,
00,
00,
00,
00,
00,
00,
00,
00,
00,
00,
00,
00,
00,
00,
00,
00,
00,
00,
00,
00,
00,
00,
00,
00,
00,
00,
00,
00,
00,
00,
00,
00,
00,
00,
00,
00,
00,
00,
00,
00,
00,
00,
00,
00,
00,
00,
00,
00,
00,
00,
00,
00,
00,
00,
00,
00,
00,
00,
00,
00,
00,
00,
00,
00,
00,
00,
00,
00,
00,
00,
00,
00,
00,
00,
00,
00,
00,
00,
00,
00,
00,
00,
00,
00,
00,
00,
00,
00,
00,
00,
00,
00,
00,
00,
00,
00,
00,
00,
00,
00,
00,
00,
00,
00,
00,
00,
00,
00,
00,
00,
00,
00,
00,
00,
00,
00,
00,
00,
00,
00,
00,
00,
00,
00,
00,
00,
00,
00,
00,
00,
00,
00,
00,
00,
00,
00,
00,
00,
00,
00,
00,
00,
00,
00,
00,
00,
00,
00,
00,
00,
00,
00,
00,
00,
00,
00,
00,
00,
00,
00,
00,
00,
00,
00,
00,
00,
00,
00,
00,
00,
00,
00,
00,
00,
00,
00,
00,
00,
00,
00,
00,
00,
00,
00,
00,
00,
00,
00,
00,
00,
00,
00,
00,
00,
00,
00,
00,
00,
00,
00,
00,
00,
00,
00,
00,
00,
00,
00,
00,
00,
00,
00,
00,
00,
00,
00,
00,
00,
00,
00,
00,
00,
00,
00,
00,
00,
00,
00,
00,
00,
00,
00,
00,
00,
00,
00,
00,
00,
00,
00,
00,
00,
00,
00,
00,
00,
00,
00,
00,
00,
00,
00,
00,
00,
00,
00,
00,
00,
00,
00,
00,
00,
00,
00,
00,
00,
00,
00,
00,
00,
00,
00,
00,
00,
00,
00,
00,
00,
00,
00,
00,
00,
00,
00,
00,
00,
00,
00,
00,
00,
00,
00,
00,
00,
00,
00,
00,
00,
00,
00,
00,
00,
00,
00,
00,
00,
00,
00,
00,
00,
00,
00,
00,
00,
00,
00,
00,
00,
00,
00,
00,
00,
00,
00,
00,
00,
00,
00,
00,
00,
00,
00,
00,
00,
00,
00,
00,
00,
00,
00,
00,
00,
00,
00,
00,
00,
00,
00,
00,
00,
00,
00,
00,
00,
00,
00,
00,
00,
00,
00,
00,
00,
00,
00,
00,
00,
00,
00,
00,
00,
00,
00,
00,
00,
00,
00,
00,
00,
00,
00,
00,
00,
00,
00,
00,
00,
00,
00,
00,
00,
00,
00,
00,
00,
00,
00,
00,
00,
00,
00,
00,
00,
00,
00,
00,
00,
00,
00,
00,
00,
00,
00,
00,
00,
00,
00,
00,
00,
00,
00,
00,
00,
00,
00,
00,
00,
00,
00,
00,
00,
00,
00,
00,
00,
00,
00,
00,
00,
00,
00,
00,
00,
00,
00,
00,
00,
00,
00,
00,
00,
00,
00,
00,
00,
00,
00,
00,
00,
00,
00,
00,
00,
00,
00,
00,
00,
00,
00,
00,
00,
00,
00,
00,
00,
00,
00,
00,
00,
00,
00,
00,
00,
00,
00,
00,
00,
00,
00,
00,
00,
00,
00,
00,
00,
00,
00,
00,
00,
00,
00,
00,
00,
00,
00,
00,
00,
00,
00,
00,
00,
00,
00,
00,
00,
00,
00,
00,
00,
00,
00,
00,
00,
00,
00,
00,
00,
00,
00,
00,
00,
00,
00,
00,
00,
00,
00,
00,
00,
00,
00,
00,
00,
00,
00,
00,
00,
00,
00,
00,
00,
00,
00,
00,
00,
00,
00,
00,
00,
00,
00,
00,
00,
00,
00,
00,
00,
00,
00,
00,
00,
00,
00,
00,
00,
00,
00,
00,
00,
00,
00,
00,
00,
00,
00,
00,
00,
00,
00,
00,
00,
00,
00,
00,
00,
00,
00,
00,
00,
00,
00,
00,
00,
00,
00,
00,
00,
00,
00,
00,
00,
00,
00,
00,
00,
00,
00,
00,
00,
00,
00,
00,
00,
00,
00,
00,
00,
00,
00,
00,
00,
00,
00,
00,
00,
00,
00,
00,
00,
00,
00,
00,
00,
00,
00,
00,
00,
00,
00,
00,
00,
00,
00,
00,
00,
00,
00,
00,
00,
00,
00,
00,
00,
00,
00,
00,
00,
00,
00,
00,
00,
00,
00,
00,
00,
00,
00,
00,
00,
00,
00,
00,
00,
00,
00,
00,
00,
00,
00,
00,
00,
00,
00,
00,
00,
00,
00,
00,
00,
00,
00,
00,
00,
00,
00,
00,
00,
00,
00,
00,
00,
00,
00,
00,
00,
00,
00,
00,
00,
00,
00,
00,
00,
00,
00,
00,
00,
00,
00,
00,
00,
00,
00,
00,
00,
00,
00,
00,
00,
00,
00,
00,
00,
00,
00,
00,
00,
00,
00,
00,
00,
00,
00,
00,
00,
00,
00,
00,
00,
00,
00,
00,
00,
00,
00,
00,
00,
00,
00,
00,
00,
00,
00,
00,
00,
00,
00,
00,
00,
00,
00,
00,
00,
00,
00,
00,
00,
00,
00,
00,
00,
00,
00,
00,
00,
00,
00,
00,
00,
00,
00,
00,
00,
00,
00,
00,
00,
00,
00,
00,
00,
00,
00,
00,
00,
00,
00,
00,
00,
00,
00,
00,
00,
00,
00,
00,
00,
00,
00,
00,
00,
00,
00,
00,
00,
00,
00,
00,
00,
00,
00,
00,
00,
00,
00,
00,
00,
00,
00,
00,
00,
00,
00,
00,
00,
00,
00,
00,
00,
00,
00,
00,
00,
00,
00,
00,
00,
00,
00,
00,
00,
00,
00,
00,
00,
00,
00,
00,
00,
00,
00,
00,
00,
00,
00,
00,
00,
00,
00,
00,
00,
00,
00,
00,
00,
00,
00,
00,
00,
00,
00,
00,
00,
00,
00,
00,
00,
00,
00,
00,
00,
00,
00,
00,
00,
00,
00,
00,
00,
00,
00,
00,
00,
00,
00,
00,
00,
00,
00,
00,
00,
00,
00,
00,
00,
00,
00,
00,
00,
00,
00,
00,
00,
00,
00,
00,
00,
00,
00,
00,
00,
00,
00,
00,
00,
00,
00,
00,
00,
00,
00,
00,
00,
00,
00,
00,
00,
00,
00,
00,
00,
00,
00,
00,
00,
00,
00,
00,
00,
00,
00,
00,
00,
00,
00,
00,
00,
00,
00,
00,
00,
00,
00,
00,
00,
00,
00,
00,
00,
00,
00,
00,
00,
00,
00,
00,
00,
00,
00,
00,
00,
00,
00,
00,
00,
00,
00,
00,
00,
00,
00,
00,
00,
00,
00,
00,
00,
00,
00,
00,
00,
00,
00,
00,
00,
00,
00,
00,
00,
00,
00,
00,
00,
00,
00,
00,
00,
00,
00,
00,
00,
00,
00,
00,
00,
00,
00,
00,
00,
00,
00,
00,
00,
00,
00,
00,
00,
00,
00,
00,
00,
00,
00,
00,
00,
00,
00,
00,
00,
00,
00,
00,
00,
00,
00,
00,
00,
00,
00,
00,
00,
00,
00,
00,
00,
00,
00,
00,
00,
00,
00,
00,
00,
00,
00,
00,
00,
00,
00,
00,
00,
00,
00,
00,
00,
00,
00,
00,
00,
00,
00,
00,
00,
00,
00,
00,
00,
00,
00,
00,
00,
00,
00,
00,
00,
00,
00,
00,
00,
00,
00,
00,
00,
00,
00,
00,
00,
00,
00,
00,
00,
00,
00,
00,
00,
00,
00,
00,
00,
00,
00,
00,
00,
00,
00,
00,
00,
00,
00,
00,
00,
00,
00,
00,
00,
00,
00,
00,
00,
00,
00,
00,
00,
00,
00,
00,
00,
00,
00,
00,
00,
00,
00,
00,
00,
00,
00,
00,
00,
00,
00,
00,
00,
00,
00,
00,
00,
00,
00,
00,
00,
00,
00,
00,
00,
00,
00,
00,
00,
00,
00,
00,
00,
00,
00,
00,
00,
00,
00,
00,
00,
00,
00,
00,
00,
00,
00,
00,
00,
00,
00,
00,
00,
00,
00,
00,
00,
00,
00,
00,
00,
00,
00,
00,
00,
00,
00,
00,
00,
00,
00,
00,
00,
00,
00,
00,
00,
00,
00,
00,
00,
00,
00,
00,
00,
00,
00,
00,
00,
00,
00,
00,
00,
00,
00,
00,
00,
00,
00,
00,
00,
00,
00,
00,
00,
00,
00,
00,
00,
00,
00,
00,
00,
00,
00,
00,
00,
00,
00,
00,
00,
00,
00,
00,
00,
00,
00,
00,
00,
00,
00,
00,
00,
00,
00,
00,
00,
00,
00,
00,
00,
00,
00,
00,
00,
00,
00,
00,
00,
00,
00,
00,
00,
00,
00,
00,
00;